<?xml version="1.0" encoding="UTF-8" standalone="no"?>
<!-- Created with Inkscape (http://www.inkscape.org/) -->

<svg
   xmlns:dc="http://purl.org/dc/elements/1.1/"
   xmlns:cc="http://creativecommons.org/ns#"
   xmlns:rdf="http://www.w3.org/1999/02/22-rdf-syntax-ns#"
   xmlns:svg="http://www.w3.org/2000/svg"
   xmlns="http://www.w3.org/2000/svg"
   xmlns:sodipodi="http://sodipodi.sourceforge.net/DTD/sodipodi-0.dtd"
   xmlns:inkscape="http://www.inkscape.org/namespaces/inkscape"
   width="25"
   height="25"
   viewBox="0 0 6.6145832 6.6145835"
   version="1.1"
   id="svg8"
   inkscape:export-filename="../public/assets/images/shuffle-icon.png"
   inkscape:export-xdpi="96"
   inkscape:export-ydpi="96"
   inkscape:version=""
   sodipodi:docname="shuffle-icon.svg">
  <defs
     id="defs2">
    <marker
       inkscape:isstock="true"
       style="overflow:visible"
       id="marker2332"
       refX="0.0"
       refY="0.0"
       orient="auto"
       inkscape:stockid="TriangleOutM">
      <path
         transform="scale(0.4)"
         style="fill-rule:evenodd;stroke:#666666;stroke-width:1pt;stroke-opacity:1;fill:#666666;fill-opacity:1"
         d="M 5.77,0.0 L -2.88,5.0 L -2.88,-5.0 L 5.77,0.0 z "
         id="path2330" />
    </marker>
    <marker
       inkscape:isstock="true"
       style="overflow:visible"
       id="marker1246"
       refX="0.0"
       refY="0.0"
       orient="auto"
       inkscape:stockid="TriangleOutM">
      <path
         transform="scale(0.4)"
         style="fill-rule:evenodd;stroke:#666666;stroke-width:1pt;stroke-opacity:1;fill:#666666;fill-opacity:1"
         d="M 5.77,0.0 L -2.88,5.0 L -2.88,-5.0 L 5.77,0.0 z "
         id="path1244" />
    </marker>
  </defs>
  <sodipodi:namedview
     id="base"
     pagecolor="#ffffff"
     bordercolor="#666666"
     borderopacity="1.0"
     inkscape:pageopacity="0.0"
     inkscape:pageshadow="2"
     inkscape:zoom="5.6"
     inkscape:cx="1.9409307"
     inkscape:cy="7.9020299"
     inkscape:document-units="mm"
     inkscape:current-layer="layer1"
     showgrid="false"
     units="px"
     inkscape:window-width="1366"
     inkscape:window-height="712"
     inkscape:window-x="0"
     inkscape:window-y="0"
     inkscape:window-maximized="1"
     inkscape:snap-grids="false"
     inkscape:snap-to-guides="false"
     inkscape:snap-global="false" />
  <metadata
     id="metadata5">
    <rdf:RDF>
      <cc:Work
         rdf:about="">
        <dc:format>image/svg+xml</dc:format>
        <dc:type
           rdf:resource="http://purl.org/dc/dcmitype/StillImage" />
        <dc:title />
      </cc:Work>
    </rdf:RDF>
  </metadata>
  <g
     inkscape:label="Layer 1"
     inkscape:groupmode="layer"
     id="layer1"
     transform="translate(0,-290.3854)">
    <path
       style="color:#000000;font-style:normal;font-variant:normal;font-weight:normal;font-stretch:normal;font-size:medium;line-height:normal;font-family:sans-serif;font-variant-ligatures:normal;font-variant-position:normal;font-variant-caps:normal;font-variant-numeric:normal;font-variant-alternates:normal;font-feature-settings:normal;text-indent:0;text-align:start;text-decoration:none;text-decoration-line:none;text-decoration-style:solid;text-decoration-color:#000000;letter-spacing:normal;word-spacing:normal;text-transform:none;writing-mode:lr-tb;direction:ltr;text-orientation:mixed;dominant-baseline:auto;baseline-shift:baseline;text-anchor:start;white-space:normal;shape-padding:0;clip-rule:nonzero;display:inline;overflow:visible;visibility:visible;opacity:1;isolation:auto;mix-blend-mode:normal;color-interpolation:sRGB;color-interpolation-filters:linearRGB;solid-color:#000000;solid-opacity:1;vector-effect:none;fill:#666666;fill-opacity:1;fill-rule:nonzero;stroke:none;stroke-width:3;stroke-linecap:butt;stroke-linejoin:miter;stroke-miterlimit:4;stroke-dasharray:none;stroke-dashoffset:0;stroke-opacity:1;color-rendering:auto;image-rendering:auto;shape-rendering:auto;text-rendering:auto;enable-background:accumulate"
       d="M 20.728516 3.1425781 C 20.728516 3.1425781 18.314493 3.0833844 15.8125 4.109375 C 15.126406 4.3907107 14.424524 4.7911217 13.761719 5.296875 C 14.349321 6.0483236 14.856865 6.9011457 15.248047 7.8417969 C 15.755078 7.4414432 16.334732 7.1367442 16.949219 6.8847656 C 18.777583 6.1350207 20.683594 6.1386719 20.683594 6.1386719 L 20.728516 3.1425781 z M 8.8554688 15.888672 C 8.3466288 16.293451 7.7649895 16.602508 7.1464844 16.857422 C 5.3157092 17.612005 3.4023438 17.611328 3.4023438 17.611328 L 3.3730469 20.607422 C 3.3730469 20.607422 5.7894806 20.657139 8.2890625 19.626953 C 8.97464 19.344387 9.6758542 18.941349 10.337891 18.435547 C 9.7511875 17.683398 9.2454347 16.829347 8.8554688 15.888672 z "
       id="path3126"
       transform="matrix(0.26458333,0,0,0.26458333,0,290.3854)" />
    <path
       style="fill:none;stroke:#666666;stroke-width:0.79375;stroke-linecap:butt;stroke-linejoin:miter;stroke-miterlimit:4;stroke-dasharray:none;stroke-opacity:1"
       d="m 0.89769343,291.61382 c 0,0 2.29148067,-0.0348 2.29148067,1.91407 0,1.93922 2.2914806,1.91407 2.2914806,1.91407"
       id="path818"
       inkscape:connector-curvature="0"
       sodipodi:nodetypes="csc" />
    <path
       style="fill:#666666;fill-opacity:1;stroke:none;stroke-width:0.51790959px;stroke-linecap:butt;stroke-linejoin:miter;stroke-opacity:1"
       d="m 4.5253317,294.46466 v 1.94217 l 1.7784317,-1.02679 z"
       id="path3104"
       inkscape:connector-curvature="0"
       inkscape:transform-center-y="-0.16704346" />
    <path
       inkscape:transform-center-y="-0.16704346"
       inkscape:connector-curvature="0"
       id="path3128"
       d="m 4.5253317,290.69671 v 1.94217 l 1.7784317,-1.02679 z"
       style="fill:#666666;fill-opacity:1;stroke:none;stroke-width:0.51790959px;stroke-linecap:butt;stroke-linejoin:miter;stroke-opacity:1" />
    <g
       id="g3177">
      <path
         sodipodi:nodetypes="csc"
         inkscape:connector-curvature="0"
         id="path3162"
         d="m -15.309707,285.23547 c 0,0 -2.29148,-0.0348 -2.29148,1.91407 0,1.93922 -2.291481,1.91407 -2.291481,1.91407"
         style="fill:none;stroke:#666666;stroke-width:0.79374999;stroke-linecap:butt;stroke-linejoin:miter;stroke-miterlimit:4;stroke-dasharray:none;stroke-opacity:1" />
      <path
         sodipodi:nodetypes="csc"
         inkscape:connector-curvature="0"
         id="path3164"
         d="m -19.890997,285.23547 c 0,0 2.291481,-0.0348 2.291481,1.91407 0,1.93922 2.29148,1.91407 2.29148,1.91407"
         style="fill:none;stroke:#ffffff;stroke-width:2.11666656;stroke-linecap:butt;stroke-linejoin:miter;stroke-miterlimit:4;stroke-dasharray:none;stroke-opacity:1" />
      <path
         style="fill:none;stroke:#666666;stroke-width:0.79374999;stroke-linecap:butt;stroke-linejoin:miter;stroke-miterlimit:4;stroke-dasharray:none;stroke-opacity:1"
         d="m -19.890997,285.23547 c 0,0 2.291481,-0.0348 2.291481,1.91407 0,1.93922 2.29148,1.91407 2.29148,1.91407"
         id="path3166"
         inkscape:connector-curvature="0"
         sodipodi:nodetypes="csc" />
      <path
         style="fill:#666666;fill-opacity:1;stroke:none;stroke-width:0.51790959px;stroke-linecap:butt;stroke-linejoin:miter;stroke-opacity:1"
         d="m -16.263359,288.08631 v 1.94217 l 1.778432,-1.02679 z"
         id="path3168"
         inkscape:connector-curvature="0"
         inkscape:transform-center-y="-0.16704346" />
      <path
         inkscape:transform-center-y="-0.16704346"
         inkscape:connector-curvature="0"
         id="path3170"
         d="m -16.263359,284.31836 v 1.94217 l 1.778432,-1.02679 z"
         style="fill:#666666;fill-opacity:1;stroke:none;stroke-width:0.51790959px;stroke-linecap:butt;stroke-linejoin:miter;stroke-opacity:1" />
    </g>
    <text
       xml:space="preserve"
       style="font-style:normal;font-variant:normal;font-weight:normal;font-stretch:normal;font-size:10.58333302px;line-height:1.25;font-family:'Ekushey 16 December';-inkscape-font-specification:'Ekushey 16 December';text-align:center;letter-spacing:0px;word-spacing:0px;text-anchor:middle;fill:#000000;fill-opacity:1;stroke:none;stroke-width:0.26458332"
       x="-16.819941"
       y="293.7872"
       id="text3181"><tspan
         sodipodi:role="line"
         id="tspan3179"
         x="-16.819941"
         y="293.7872"
         style="font-style:normal;font-variant:normal;font-weight:normal;font-stretch:normal;font-size:3.17499995px;font-family:Times;-inkscape-font-specification:Times;stroke-width:0.26458332">Backup</tspan></text>
  </g>
</svg>
